{
  "port": 48887,
  "bts": {
    "node": "wss://cloud.gvxlive.io/ws",
    "registrar": "gvxliveio-wallet",
    "wif": "your_private_active_key_here",
    "default_referrer": "gvxlivex",
    "referrer_percent": 50,
    "core_asset": "DXP",
    "timeoutIp": 1800,
    "broadcastTx": true,
    "allowPremium": false,
    "allowCustomerReferer": true,
    "sendAfterReg": {
      "asset": "DXP",
      "amount": 0
    }
  }
}
